{
  "uniqueId": "",
  "technology": "KB",
  "globalId": "KB_GCR_2043",
  "software": "ANY",
  "country": "RUS",
  "language": "RU",
  "version": "200727.1",
  "host": "",
  "vpc": "",
  "bearer": "Bearer 5090c166a91e3beb8bd3dcaaee599f5a",
  "authToken": "",
  "creationDate": "Sun, 11 Apr 2021 03:27:37 UTC",
  "schemaVersion": "1.0",
  "data": {
    "selections": {
      "name": null,
      "globalId": "KB_GCR_2043",
      "version": "200727.1",
      "isComplete": true,
      "state": {
        "criterias": [
          {
            "criteriaId": "T_RATED_CURRENT",
            "valueId": "100_A",
            "bompath": "00000010"
          },
          {
            "criteriaId": "T_POLES_DESCRIPTION",
            "valueId": "3P",
            "bompath": "00000010"
          },
          {
            "criteriaId": "TC_CONNECTIONS",
            "valueId": "EVERLINK",
            "bompath": "0000"
          },
          {
            "criteriaId": "TC_UPSTREAM_CONNECTION",
            "valueId": "NOT_APPLICABLE",
            "bompath": "0000"
          },
          {
            "criteriaId": "TC_DOWNSTREAM_CONNECTION",
            "valueId": "NOT_APPLICABLE",
            "bompath": "0000"
          },
          {
            "criteriaId": "C_REF",
            "valueId": "LV426601",
            "bompath": "00000010"
          },
          {
            "criteriaId": "YN_CRIMP_LUGS_UP",
            "valueId": "NO",
            "bompath": "0000"
          },
          {
            "criteriaId": "YN_PDC_CONNECTOR_UP",
            "valueId": "NO",
            "bompath": "0000"
          },
          {
            "criteriaId": "YN_SPREADER_UP",
            "valueId": "NO",
            "bompath": "0000"
          },
          {
            "criteriaId": "YN_CRIMP_LUGS_DOWN",
            "valueId": "NO",
            "bompath": "0000"
          },
          {
            "criteriaId": "YN_PDC_CONNECTOR_DOWN",
            "valueId": "NO",
            "bompath": "0000"
          },
          {
            "criteriaId": "YN_SPREADER_DOWN",
            "valueId": "NO",
            "bompath": "0000"
          },
          {
            "criteriaId": "YN_INTERPHASE_BARRIER_UP_IN",
            "valueId": "YES",
            "bompath": "0000"
          },
          {
            "criteriaId": "YN_INTERPHASE_BARRIER_DOWN_IN",
            "valueId": "YES",
            "bompath": "0000"
          }
        ],
        "references": [
          {
            "reference": "LV426601",
            "quantity": 1
          }
        ],
        "accessories": null,
        "children": null
      }
    }
  }
}